%YAML 1.1
%TAG !u! tag:unity3d.com,2011:
--- !u!114 &11400000
MonoBehaviour:
  m_ObjectHideFlags: 0
  m_CorrespondingSourceObject: {fileID: 0}
  m_PrefabInstance: {fileID: 0}
  m_PrefabAsset: {fileID: 0}
  m_GameObject: {fileID: 0}
  m_Enabled: 1
  m_EditorHideFlags: 0
  m_Script: {fileID: 11500000, guid: 3c52b91c052ea134c93bba04bfd1261e, type: 3}
  m_Name: 3Spinner
  m_EditorClassIdentifier: 
  Name: Three Spinner
  ItemSprite: {fileID: 2359560170975872125, guid: 04a53ce24ab56f84291335a9643f0818,
    type: 3}
  Price: 1300
  Description: Use to gain 3 spinners next spin
  NumberOfSpinners: 3
