%YAML 1.1
%TAG !u! tag:unity3d.com,2011:
--- !u!114 &11400000
MonoBehaviour:
  m_ObjectHideFlags: 0
  m_CorrespondingSourceObject: {fileID: 0}
  m_PrefabInstance: {fileID: 0}
  m_PrefabAsset: {fileID: 0}
  m_GameObject: {fileID: 0}
  m_Enabled: 1
  m_EditorHideFlags: 0
  m_Script: {fileID: 11500000, guid: fa65200a5a8b9824ab7f6f14a248c410, type: 3}
  m_Name: Ninja
  m_EditorClassIdentifier: 
  JobName: Ninja
  MasteryStat: 4
  PayRaiseMultiplier: 1.8
  BaseSalary: 1200
  ItemInventorySize: 10
  MagicInventorySize: 6
  JobMasteryRequirement: 1
  JobMasteryRequirements:
  - {fileID: 11400000, guid: 737169dc3d4c41a4f9097bc9039210d8, type: 2}
  - {fileID: 11400000, guid: 51faee304e7939f4797dc8b50b9e62ce, type: 2}
  LevelUpStats:
  - StatToIncrease: 1
    IncreaseAmount: 2
  - StatToIncrease: 4
    IncreaseAmount: 2
