%YAML 1.1
%TAG !u! tag:unity3d.com,2011:
--- !u!114 &11400000
MonoBehaviour:
  m_ObjectHideFlags: 0
  m_CorrespondingSourceObject: {fileID: 0}
  m_PrefabInstance: {fileID: 0}
  m_PrefabAsset: {fileID: 0}
  m_GameObject: {fileID: 0}
  m_Enabled: 1
  m_EditorHideFlags: 0
  m_Script: {fileID: 11500000, guid: bd679217b7bdb1148a2a91cd4dbecedb, type: 3}
  m_Name: Warrior
  m_EditorClassIdentifier: 
  JobName: Warrior
  MasteryStat: 1
  PayRaiseMultiplier: 1.5
  BaseSalary: 500
  ItemInventorySize: 6
  MagicInventorySize: 4
  JobMasteryRequirement: 0
  JobMasteryRequirements: []
  LevelUpStats:
  - StatToIncrease: 1
    IncreaseAmount: 2
  - StatToIncrease: 2
    IncreaseAmount: 1
  - StatToIncrease: 0
    IncreaseAmount: 1
  BaseStats: {fileID: 11400000, guid: ab68f46c80e83f54d80d9f2745376ff9, type: 2}
