%YAML 1.1
%TAG !u! tag:unity3d.com,2011:
--- !u!114 &11400000
MonoBehaviour:
  m_ObjectHideFlags: 0
  m_CorrespondingSourceObject: {fileID: 0}
  m_PrefabInstance: {fileID: 0}
  m_PrefabAsset: {fileID: 0}
  m_GameObject: {fileID: 0}
  m_Enabled: 1
  m_EditorHideFlags: 0
  m_Script: {fileID: 11500000, guid: 4841cacc64974f2428900c88d8d67120, type: 3}
  m_Name: DEBUG2
  m_EditorClassIdentifier: 
  Name: DEBUG2
  ItemSprite: {fileID: -910514757367725139, guid: 04a53ce24ab56f84291335a9643f0818,
    type: 3}
  Price: 100
  Description: Lorem ipsum dolor sit amet, consectetur adipiscing elit, sed do eiusmod
    tempor incididunt ut labore et dolore magna aliqua. Ut enim ad minim veniam,
    quis nostrud exercitation ullamco laboris nisi ut aliquip ex ea commodo consequat.
    Duis aute irure dolor in reprehenderit in voluptate velit esse cillum dolore
    eu fugiat nulla pariatur. Excepteur sint occaecat cupidatat non proident, sunt
    in culpa qui officia deserunt mollit anim id est laborum
