%YAML 1.1
%TAG !u! tag:unity3d.com,2011:
--- !u!114 &11400000
MonoBehaviour:
  m_ObjectHideFlags: 0
  m_CorrespondingSourceObject: {fileID: 0}
  m_PrefabInstance: {fileID: 0}
  m_PrefabAsset: {fileID: 0}
  m_GameObject: {fileID: 0}
  m_Enabled: 1
  m_EditorHideFlags: 0
  m_Script: {fileID: 11500000, guid: adbcab758ceb70f40be6146709df1c56, type: 3}
  m_Name: 17_Battlefist
  m_EditorClassIdentifier: 
  Id: 17
  Name: Battlefist
  Price: 32500
  Attack: 60
  Defense: 0
  Magic: 0
  Speed: 3
  Hp: 0
