%YAML 1.1
%TAG !u! tag:unity3d.com,2011:
--- !u!114 &11400000
MonoBehaviour:
  m_ObjectHideFlags: 0
  m_CorrespondingSourceObject: {fileID: 0}
  m_PrefabInstance: {fileID: 0}
  m_PrefabAsset: {fileID: 0}
  m_GameObject: {fileID: 0}
  m_Enabled: 1
  m_EditorHideFlags: 0
  m_Script: {fileID: 11500000, guid: 1f60a26e6d562bb448b290b57a1d1c07, type: 3}
  m_Name: 1.Rogue
  m_EditorClassIdentifier: 
  CharacterName: Rogue
  Level: 1
  MaxHp: 21
  Attack: 7
  Defense: 5
  Magic: 1
  Speed: 3
  Personality: 0
  XPGained: 10
  GoldGained: 60
  DropChance: 0
  PossibleDrops: []
