%YAML 1.1
%TAG !u! tag:unity3d.com,2011:
--- !u!114 &11400000
MonoBehaviour:
  m_ObjectHideFlags: 0
  m_CorrespondingSourceObject: {fileID: 0}
  m_PrefabInstance: {fileID: 0}
  m_PrefabAsset: {fileID: 0}
  m_GameObject: {fileID: 0}
  m_Enabled: 1
  m_EditorHideFlags: 0
  m_Script: {fileID: 11500000, guid: 1f60a26e6d562bb448b290b57a1d1c07, type: 3}
  m_Name: 16.Orc
  m_EditorClassIdentifier: 
  CharacterName: Orc
  Level: 6
  MaxHp: 76
  Attack: 30
  Defense: 16
  Magic: 7
  Speed: 5
  Personality: 0
  XPGained: 88
  GoldGained: 265
  DropChance: 0
  PossibleDrops: []
