%YAML 1.1
%TAG !u! tag:unity3d.com,2011:
--- !u!114 &11400000
MonoBehaviour:
  m_ObjectHideFlags: 0
  m_CorrespondingSourceObject: {fileID: 0}
  m_PrefabInstance: {fileID: 0}
  m_PrefabAsset: {fileID: 0}
  m_GameObject: {fileID: 0}
  m_Enabled: 1
  m_EditorHideFlags: 0
  m_Script: {fileID: 11500000, guid: 69e1c32c121cc104e8912305771ee916, type: 3}
  m_Name: ShopItemsSO
  m_EditorClassIdentifier: 
  Shop: 0
  AvailableItems:
  - {fileID: 11400000, guid: fe285e0ecc4c95742a877ea096a9f7bc, type: 2}
  - {fileID: 11400000, guid: c753829293a7d1349a30ea41d4f4f2ba, type: 2}
  - {fileID: 11400000, guid: ac07c31131e768e46bbd20235f34b023, type: 2}
  - {fileID: 11400000, guid: 56dd4e1485da7ac4790fc459c77d8688, type: 2}
  - {fileID: 11400000, guid: 1a4426911a27c824187f2a48dd2ad780, type: 2}
