%YAML 1.1
%TAG !u! tag:unity3d.com,2011:
--- !u!114 &11400000
MonoBehaviour:
  m_ObjectHideFlags: 0
  m_CorrespondingSourceObject: {fileID: 0}
  m_PrefabInstance: {fileID: 0}
  m_PrefabAsset: {fileID: 0}
  m_GameObject: {fileID: 0}
  m_Enabled: 1
  m_EditorHideFlags: 0
  m_Script: {fileID: 11500000, guid: 7495d97a0d19c134c81e65475ff33fdc, type: 3}
  m_Name: Uvs Nuur
  m_EditorClassIdentifier: 
  TownName: Uvs Nuur
  InitialTownWorth: 100000
  InitalTaxes: 12
  PossibleBossMonsters:
  - {fileID: 11400000, guid: 05827c69e17e5be4caa03af6a2502176, type: 2}
  - {fileID: 11400000, guid: fea0d9fa3492ecf488e9ab855078a2b6, type: 2}
  - {fileID: 11400000, guid: 11ae9d3883dc9ac47b003127555cad9e, type: 2}
  - {fileID: 11400000, guid: 34be26fe1d096704da1ebbb820bfe3dc, type: 2}
  - {fileID: 11400000, guid: b8d14d68100105b4b9f04529260b7acb, type: 2}
  - {fileID: 11400000, guid: 7e8298f44a89b3a4bbbc91d56da5f679, type: 2}
