%YAML 1.1
%TAG !u! tag:unity3d.com,2011:
--- !u!114 &11400000
MonoBehaviour:
  m_ObjectHideFlags: 0
  m_CorrespondingSourceObject: {fileID: 0}
  m_PrefabInstance: {fileID: 0}
  m_PrefabAsset: {fileID: 0}
  m_GameObject: {fileID: 0}
  m_Enabled: 1
  m_EditorHideFlags: 0
  m_Script: {fileID: 11500000, guid: 2195dca476cf07e4abd474813050a4e6, type: 3}
  m_Name: 5Crystal
  m_EditorClassIdentifier: 
  Name: Five Crystal
  ItemSprite: {fileID: -910514757367725139, guid: 04a53ce24ab56f84291335a9643f0818,
    type: 3}
  Price: 500
  Description: Use to move 5 spaces
  CrystalValue: 5
