%YAML 1.1
%TAG !u! tag:unity3d.com,2011:
--- !u!114 &11400000
MonoBehaviour:
  m_ObjectHideFlags: 0
  m_CorrespondingSourceObject: {fileID: 0}
  m_PrefabInstance: {fileID: 0}
  m_PrefabAsset: {fileID: 0}
  m_GameObject: {fileID: 0}
  m_Enabled: 1
  m_EditorHideFlags: 0
  m_Script: {fileID: 11500000, guid: da84e02e5fba8d445b4e7550b137c961, type: 3}
  m_Name: 10_SpeedRing
  m_EditorClassIdentifier: 
  Id: 10
  Name: Ring of Speed
  Price: 100000
  Attack: 0
  Defense: 0
  Magic: 0
  Speed: 15
  Hp: 0
