%YAML 1.1
%TAG !u! tag:unity3d.com,2011:
--- !u!114 &11400000
MonoBehaviour:
  m_ObjectHideFlags: 0
  m_CorrespondingSourceObject: {fileID: 0}
  m_PrefabInstance: {fileID: 0}
  m_PrefabAsset: {fileID: 0}
  m_GameObject: {fileID: 0}
  m_Enabled: 1
  m_EditorHideFlags: 0
  m_Script: {fileID: 11500000, guid: d7c32490c86d3554e99857fb5517c349, type: 3}
  m_Name: 22_Steal
  m_EditorClassIdentifier: 
  Id: 22
  Name: Pickpocket
  Price: 500
  Power: 3
  MagicType: 7
  StealAmount: 25
