%YAML 1.1
%TAG !u! tag:unity3d.com,2011:
--- !u!114 &11400000
MonoBehaviour:
  m_ObjectHideFlags: 0
  m_CorrespondingSourceObject: {fileID: 0}
  m_PrefabInstance: {fileID: 0}
  m_PrefabAsset: {fileID: 0}
  m_GameObject: {fileID: 0}
  m_Enabled: 1
  m_EditorHideFlags: 0
  m_Script: {fileID: 11500000, guid: 09b48dc393ed6434f86ad6e2164bfc61, type: 3}
  m_Name: 9_IceBarrage
  m_EditorClassIdentifier: 
  Id: 9
  Name: Ice Barrage
  Price: 224000
  Power: 8.2
  MagicType: 2
  StatReduction: 25
