%YAML 1.1
%TAG !u! tag:unity3d.com,2011:
--- !u!1 &3627947472537252644
GameObject:
  m_ObjectHideFlags: 0
  m_CorrespondingSourceObject: {fileID: 0}
  m_PrefabInstance: {fileID: 0}
  m_PrefabAsset: {fileID: 0}
  serializedVersion: 6
  m_Component:
  - component: {fileID: 3627947472537252666}
  - component: {fileID: 3627947472537252645}
  m_Layer: 0
  m_Name: GlobalComponents
  m_TagString: Untagged
  m_Icon: {fileID: 0}
  m_NavMeshLayer: 0
  m_StaticEditorFlags: 0
  m_IsActive: 1
--- !u!4 &3627947472537252666
Transform:
  m_ObjectHideFlags: 0
  m_CorrespondingSourceObject: {fileID: 0}
  m_PrefabInstance: {fileID: 0}
  m_PrefabAsset: {fileID: 0}
  m_GameObject: {fileID: 3627947472537252644}
  m_LocalRotation: {x: 0, y: 0, z: 0, w: 1}
  m_LocalPosition: {x: 0, y: 0, z: 0}
  m_LocalScale: {x: 1, y: 1, z: 1}
  m_Children: []
  m_Father: {fileID: 0}
  m_RootOrder: 0
  m_LocalEulerAnglesHint: {x: 0, y: 0, z: 0}
--- !u!114 &3627947472537252645
MonoBehaviour:
  m_ObjectHideFlags: 0
  m_CorrespondingSourceObject: {fileID: 0}
  m_PrefabInstance: {fileID: 0}
  m_PrefabAsset: {fileID: 0}
  m_GameObject: {fileID: 3627947472537252644}
  m_Enabled: 1
  m_EditorHideFlags: 0
  m_Script: {fileID: 11500000, guid: 8e87785113068b54bbd56fa7d4fd52d5, type: 3}
  m_Name: 
  m_EditorClassIdentifier: 
  PlayerPrefab: {fileID: 8743520119709972853, guid: 591e2cd4dc7f09a4191b544e3dff7bcc,
    type: 3}
  PlayerMaterial:
  - {fileID: 2100000, guid: 3053ef5f50ebe4c4dbb8fc04657606d5, type: 2}
  - {fileID: 2100000, guid: 0c1649c28481ae142a73b9c8478680a7, type: 2}
  - {fileID: 2100000, guid: 722bc26258a96c14d94c9fd68d474f46, type: 2}
  - {fileID: 2100000, guid: afba24ace6125d8408d1e241d062d6af, type: 2}
  PlayerStartingPosition: {x: -40, y: 0, z: 80}
  DEBUG_JOBS:
  - {fileID: 11400000, guid: b2384033753359345bd41a693f9be10d, type: 2}
  - {fileID: 11400000, guid: 2b31a2e002ce55f4ba4ece539f80f6a6, type: 2}
  DEBUG_NAMES:
  - Player1
  - Player2
  DEBUG_STARTINVENTORY: []
  FadeInTransitionEvent: {fileID: 11400000, guid: 5581efe6d5c746244803306f56528db9,
    type: 2}
  FadeOutTransitionEvent: {fileID: 11400000, guid: cca879a114ea7d040a0ae318ef597bc9,
    type: 2}
