%YAML 1.1
%TAG !u! tag:unity3d.com,2011:
--- !u!114 &11400000
MonoBehaviour:
  m_ObjectHideFlags: 0
  m_CorrespondingSourceObject: {fileID: 0}
  m_PrefabInstance: {fileID: 0}
  m_PrefabAsset: {fileID: 0}
  m_GameObject: {fileID: 0}
  m_Enabled: 1
  m_EditorHideFlags: 0
  m_Script: {fileID: 11500000, guid: 64d9d4337fcaa1145b872243b21b745d, type: 3}
  m_Name: 12_ChargeMG
  m_EditorClassIdentifier: 
  Name: MG Charge
  ItemSprite: {fileID: 0}
  Price: 5000
  Description: 
  Id: 12
  Power: 35
  Protection: 0
  StatsToBuff:
  - Stat: 3
    Value: 50
  Duration: 1
  DurationType: 1
