%YAML 1.1
%TAG !u! tag:unity3d.com,2011:
--- !u!114 &11400000
MonoBehaviour:
  m_ObjectHideFlags: 0
  m_CorrespondingSourceObject: {fileID: 0}
  m_PrefabInstance: {fileID: 0}
  m_PrefabAsset: {fileID: 0}
  m_GameObject: {fileID: 0}
  m_Enabled: 1
  m_EditorHideFlags: 0
  m_Script: {fileID: 11500000, guid: 50c5a400471e05f49b992db421e34547, type: 3}
  m_Name: 19_BounceSuper
  m_EditorClassIdentifier: 
  Name: Super Bounce
  ItemSprite: {fileID: 0}
  Price: 2
  Description: 
  Id: 19
  Power: 0
  Protection: 0
  ActionsSealed: 
  DamageReflected: 400
  BounceEffect: 1
  ReflectStatus: 1
