%YAML 1.1
%TAG !u! tag:unity3d.com,2011:
--- !u!114 &11400000
MonoBehaviour:
  m_ObjectHideFlags: 0
  m_CorrespondingSourceObject: {fileID: 0}
  m_PrefabInstance: {fileID: 0}
  m_PrefabAsset: {fileID: 0}
  m_GameObject: {fileID: 0}
  m_Enabled: 1
  m_EditorHideFlags: 0
  m_Script: {fileID: 11500000, guid: 2c90ac3bd0bba09478e01c7c86bf95f9, type: 3}
  m_Name: 25_Ragnarok
  m_EditorClassIdentifier: 
  Id: 25
  Name: Ragnarok Shield
  Price: 190000
  Attack: 0
  Defense: 156
  Magic: 5
  Speed: 0
  Hp: 0
