%YAML 1.1
%TAG !u! tag:unity3d.com,2011:
--- !u!114 &11400000
MonoBehaviour:
  m_ObjectHideFlags: 0
  m_CorrespondingSourceObject: {fileID: 0}
  m_PrefabInstance: {fileID: 0}
  m_PrefabAsset: {fileID: 0}
  m_GameObject: {fileID: 0}
  m_Enabled: 1
  m_EditorHideFlags: 0
  m_Script: {fileID: 11500000, guid: 2c90ac3bd0bba09478e01c7c86bf95f9, type: 3}
  m_Name: 2_Leather
  m_EditorClassIdentifier: 
  Id: 2
  Name: Leather Shield
  Price: 80
  Attack: 0
  Defense: 5
  Magic: 0
  Speed: 2
  Hp: 0
