%YAML 1.1
%TAG !u! tag:unity3d.com,2011:
--- !u!114 &11400000
MonoBehaviour:
  m_ObjectHideFlags: 0
  m_CorrespondingSourceObject: {fileID: 0}
  m_PrefabInstance: {fileID: 0}
  m_PrefabAsset: {fileID: 0}
  m_GameObject: {fileID: 0}
  m_Enabled: 1
  m_EditorHideFlags: 0
  m_Script: {fileID: 11500000, guid: 2c90ac3bd0bba09478e01c7c86bf95f9, type: 3}
  m_Name: 6_Wabbit
  m_EditorClassIdentifier: 
  Id: 6
  Name: Wabbit Shield
  Price: 16000
  Attack: 20
  Defense: 20
  Magic: 20
  Speed: 20
  Hp: 200
